…
write.csv(parametros_IQA,
          "./parametros_IQA.csv",
          row.names = FALSE)

plan_wide_19902020 %>% 
  select(starts_with("iqa_")) %>% 
  mutate(
    teste_iqa_calc = prod() #queria tentar gerar o produtório entre as colunas que já possuem o IQA^2
  )
```

```
## # A tibble: 1,179 × 18
##    iqa_dbo iqa_p…¹ iqa_n…² iqa_od iqa_pH iqa_t…³ iqa_c…⁴ iqa_s…⁵ iqa_o…⁶ iqa_t…⁷
##      <dbl>   <dbl>   <dbl>  <dbl>  <dbl>   <dbl>   <dbl>   <dbl>   <dbl>   <dbl>
##  1    54.0    72.7    89.0   84.6   89.8    61.9    76.6    83.9    2.13    1.58
##  2    54.0    78.0    87.6   90.9   87.7    61.9    47.2    84.7    2.15    1.58
##  3    29.0    38.3    59.3   76.2   82.9    80.2    60.4    79.4    2.09    1.58
##  4    69.1    77.4    93.7   89.7   77.0    58.7    63.0    85.8    2.15    1.58
##  5    69.1    71.7    88.8   97.5   89.8    63.1    49.7    83.3    2.18    1.58
##  6    78.1    91.2    94.0   89.9   85.4    65.7    57.1    86.1    2.15    1.58
##  7    61.0    63.4    90.4   79.6   82.9    73.6    47.2    86.1    2.10    1.58
##  8    69.1    67.8    89.4   74.4   85.4    59.7    69.8    73.7    2.08    1.58
##  9    61.0    54.3    83.2   76.6   73.6    65.7    63.0    86.0    2.09    1.58
## 10    78.1    78.0    89.6   86.1   92.0    58.7    56.0    83.7    2.13    1.58
## # … with 1,169 more rows, 8 more variables: iqa_coli_2 <dbl>, iqa_pH_2 <dbl>,
## #   iqa_dbo_2 <dbl>, iqa_nitro_tot_2 <dbl>, iqa_ptot_2 <dbl>, iqa_turb_2 <dbl>,
## #   iqa_sol_tot_2 <dbl>, teste_iqa_calc <dbl>, and abbreviated variable names
## #   ¹​iqa_ptot, ²​iqa_nitro_tot, ³​iqa_turb, ⁴​iqa_coli, ⁵​iqa_sol_tot, ⁶​iqa_od_2,
## #   ⁷​iqa_temp_agua
```
…
